-0.182862,	0.110175,	0.976946
0.063510,	0.172198,	0.983013
0.099288,	-0.176080,	0.979356
-0.055440,	-0.154325,	0.986464
0.125521,	-0.002894,	0.992087
-0.218239,	-0.067029,	0.973591
-0.018649,	0.063052,	0.997836
-0.074830,	0.156673,	0.984812
-0.035332,	0.072418,	0.996748
0.083429,	-0.177233,	0.980626
0.123108,	-0.155649,	0.980111
0.026359,	0.127270,	0.991518
-0.172270,	-0.002115,	0.985048
0.095199,	0.003956,	0.995450
-0.061920,	0.246842,	0.967076
-0.165385,	-0.058480,	0.984494
-0.158970,	-0.110085,	0.981127
-0.164970,	0.059348,	0.984511
-0.046028,	-0.223992,	0.973503
0.020075,	-0.010497,	0.999743
-0.030429,	-0.254281,	0.966652
0.035188,	-0.125803,	0.991431
0.116084,	-0.088886,	0.989254
0.104716,	-0.053336,	0.993071
0.143662,	0.069087,	0.987212
-0.006348,	-0.233888,	0.972243
-0.121062,	-0.123531,	0.984928
0.235419,	-0.009800,	0.971845
-0.130585,	-0.010126,	0.991385
0.111752,	-0.184471,	0.976464
0.064663,	0.160371,	0.984936
0.108471,	0.068876,	0.991711